Ejemplo de uso del paquete `eph` • eph
…
### Descargo la base individual para el 2018_t2
base_2018t2 <- get_microdata(
  year = 2018, period = 2, type = "individual",
  vars = variables
)

### Armo el panel
pool <- organize_panels(
  bases = list(base_2018t1, base_2018t2),
  variables = c("ESTADO", "PONDERA"),
  window = "trimestral"
)

pool
#> # A tibble: 25,411 × 17
#>    CODUSU        NRO_HOGAR COMPONENTE  ANO4 TRIMESTRE  CH04  CH06 ESTADO PONDERA
#>    <fct>             <int>      <int> <int>     <int> <int> <int>  <int>   <int>
#>  1 TQRMNORUTHMK…         1          1  2018         1     2    67      3    1008
#>  2 TQRMNORUTHMK…         1          2  2018         1     1    81      1    1008
#>  3 TQRMNORUTHMK…         1          3  2018         1     2    22      2    1008
#>  4 TQRMNOVQVHMO…         1          1  2018         1     1    62      1     886
#>  5 TQRMNORPYHMM…         1          1  2018         1     1    83      3     594
#>  6 TQRMNORPYHMM…         1          2  2018         1     2    79      3     594
#>  7 TQRMNOTSYHKM…         1          1  2018         1     2    79      3     700
#>  8 TQRMNOQTTHKM…         1          1  2018         1     1    38      1     700
#>  9 TQRMNOQTTHKM…         1          2  2018         1     2    33      1     700
#> 10 TQRMNOQRVHMM…         1          1  2018         1     1    64      1     546
#> # ℹ 25,401 more rows
#> # ℹ 8 more variables: Periodo <yearqtr>, ANO4_t1 <int>, TRIMESTRE_t1 <int>,
#> #   CH04_t1 <int>, CH06_t1 <int>, ESTADO_t1 <int>, PONDERA_t1 <int>,
#> #   consistencia <lgl>
…
Cálculo de pobreza: calculate_poverty()

Un objetivo del paquete eph, es lograr automatizar el cálculo de pobreza e indigencia del INDEC para las bases trimestrales1. El gran problema es que no existe información publicada fuera de los informes de prensa en formato pdf sobre los valores de las canastas básicas y alimentarias.

No obstante, hemos desarrollado dos funciones que, de encontrarse disponibles dichos datos, podrían calcular de forma automática los valores de pobreza e indigencia. Mostraremos un ejemplo de juguete con dos datasets de la CABA y sus respectivos valores de canastas.

Existen dos funciones núcleo:

lineas <- get_poverty_lines()
lineas
#> # A tibble: 94 × 4
#>    periodo               CBA   ICE   CBT
#>    <dttm>              <dbl> <dbl> <dbl>
#>  1 2016-04-01 00:00:00 1515.  2.42 3664.
#>  2 2016-05-01 00:00:00 1561.  2.45 3831.
#>  3 2016-06-01 00:00:00 1614.  2.44 3943.
#>  4 2016-07-01 00:00:00 1666.  2.42 4034.
#>  5 2016-08-01 00:00:00 1675.  2.41 4042.
#>  6 2016-09-01 00:00:00 1711.  2.39 4090.
#>  7 2016-10-01 00:00:00 1739.  2.41 4192.
#>  8 2016-11-01 00:00:00 1763.  2.41 4248.
#>  9 2016-12-01 00:00:00 1767.  2.41 4258.
#> 10 2017-01-01 00:00:00 1789.  2.41 4312.
#> # ℹ 84 more rows
…
